<?xml version="1.0" encoding="UTF-8" standalone="no"?>
<svg xmlns="http://www.w3.org/2000/svg" xmlns:xlink="http://www.w3.org/1999/xlink" xmlns:serif="http://www.serif.com/" width="100%" height="100%" viewBox="0 0 28005 13071" version="1.1" xml:space="preserve" style="fill-rule:evenodd;clip-rule:evenodd;stroke-linecap:round;stroke-linejoin:round;stroke-miterlimit:1.5;">
  <rect x="-2.554" y="12155.2" width="28004.2" height="912.175" style="fill:#2e2e2e;"></rect>
  <g>
    <path d="M26065.5,9360.9l396.302,-420.743c-0,-0 532.188,390.254 630.254,462.165c9.441,6.921 13.873,18.785 11.284,30.201c-54.783,243.032 -109.828,268.479 -299.141,381.365c-10.867,6.49 -24.472,6.265 -35.119,-0.58c-109.903,-70.668 -703.58,-452.408 -703.58,-452.408Z" style="fill:#2c2c2c;"></path>
    <path d="M25589.2,8977.08l740.088,-895.358c56.254,-59.554 120.642,-65.662 191.767,-27.492l288.55,294.871c44.233,65.367 51.879,125.25 -20.971,173.059l-815.267,786.82c-53.2,74.063 -117.558,84.134 -193.067,30.213l-208.462,-226.046c-18.075,-47.671 -10.842,-92.883 17.362,-136.067Z" style="fill:#2c2c2c;"></path>
    <path d="M24932.2,8525.71l723.784,-1047.66c97.8,-89.696 194.858,-90.829 291.241,-11.333l308.409,311.962c44.041,73.421 66.704,146.846 17.387,220.271l-711.062,898.912c-59.15,66.284 -139.254,76.209 -239.354,32.363l-376.675,-187.171c-65.246,-69.096 -58.438,-142.171 -13.73,-217.342Z" style="fill:#2c2c2c;"></path>
    <path d="M24627.7,7408.83c133.813,-225.171 267.892,-469.166 400.6,-614.645c61.067,-50.338 134.93,-56.592 223.359,-12.7l412.262,262.775c75.842,75.162 79.588,155.712 34.009,239.95c-91.246,181.82 -194.117,347.195 -311.909,491.454c-95.446,125.196 -190.896,241.358 -286.346,347.246c-51.045,10.725 -66.316,-16.534 -67.858,-58.371l51.246,-274.934c10.762,-49.225 -14.088,-86.262 -63.304,-114.954l-364.817,-158.929c-24.267,-15.775 -37.687,-45.733 -27.242,-106.892Z" style="fill:#2c2c2c;"></path>
    <path d="M26945.4,9788.39c131.105,-84.874 121.539,-100.093 166.852,-202.881c76.643,30.832 140.363,122.921 155.714,169.45c4.154,12.589 -6.795,50.121 -32.957,80.251c-26.991,31.088 -62.505,48.208 -80.871,49.563c-50.899,3.755 -170.224,-62.121 -208.738,-96.383Z" style="fill:#2c2c2c;"></path>
    <g>
      <path d="M22257.7,6568.19l560.042,187.076c-19.187,88.771 -84.394,198.001 -276.927,347.292l-382.001,-422.438c49.169,-27.708 84.637,-79.358 98.886,-111.93Z" style="fill:#2d2d2d;stroke:#2d2d2d;stroke-width:54.17px;"></path>
      <path d="M22108.8,6627.87c-0,-0 69.331,-44.96 82.317,-93.566l-196.767,-61.182l114.45,154.748Z" style="fill:#2d2d2d;stroke:#2d2d2d;stroke-width:20.83px;"></path>
    </g>
    <path d="M23862,7042.08c147.338,-193.337 263.521,-392.362 378.796,-591.558c100.362,-100.525 205.629,-91.433 314.575,0l286.087,189.671c115.909,60.325 106.284,132.633 51.588,209.237l-319.371,502.834c-69.804,100.779 -145.683,95.75 -224.633,37.195l-448.442,-208.091c-73.208,-45.842 -87.025,-92.258 -38.6,-139.288Z" style="fill:#2c2c2c;"></path>
    <path d="M24528.8,8840.08c329.342,51.684 618.109,118.35 887.538,192.163l441.046,428.387l77.454,-21.021c175.342,78.755 317.1,176.234 439.046,284.763l-118.817,444.417c-52.729,50.375 -141.321,107.916 -202.154,261.7l-145.017,179.37c-29.537,600.646 -57.429,1166.62 -77.929,1577.45l-2052.07,55.287c-32.637,-507.096 50.717,-1107.48 202.029,-1762.52c-268.945,-321.129 -449.091,-652.925 -592.291,-892.841c-221.059,-370.371 -502.792,-639.084 -700.729,-989.967c169.058,-447.096 448.7,-886.858 801.283,-1321.78c109.55,-97.675 224.908,-93.567 345.367,-0l67.158,-0c442.542,156.037 791.058,319.987 1101.94,487.108c13.867,137.292 1.03,269.367 -70.454,389.984c-230.479,137.437 -462.521,199.387 -662.7,163.929l-370.971,-347.713c20.196,172.604 21.525,309.071 -64.97,350.6c-39.188,115.638 -100.009,143.617 -164.909,155.059c122.113,29.079 216.521,120.591 342.859,151.42c100.65,24.563 198.437,51.13 265.095,117.188c366.78,451.604 689.217,899.804 914.571,1342.77c-109.779,135.35 -239.616,223.083 -387.716,267.462l3.208,38.509l288.046,16.475c66.391,362.204 94.983,802.425 137.737,1255.2l46.834,-5.013c-23.334,-396.192 -38.067,-785.3 -12.505,-1141.23c74.246,-30.079 142.367,-71.667 200.096,-132.75c-56.404,-39.187 -120.958,-86.112 -146.6,-141.883c-96.141,-237.654 -184.858,-477.163 -265.129,-718.775c-222.312,-216.209 -378.837,-448.859 -526.342,-683.763Z" style="fill:#2c2c2c;"></path>
  </g>
  <g>
    <path d="M26065.5,9360.9l396.302,-420.743c-0,-0 532.188,390.254 630.254,462.165c9.441,6.921 13.873,18.785 11.284,30.201c-54.783,243.032 -109.828,268.479 -299.141,381.365c-10.867,6.49 -24.472,6.265 -35.119,-0.58c-109.903,-70.668 -703.58,-452.408 -703.58,-452.408Z" style="fill:#2c2c2c;"></path>
    <path d="M25589.2,8977.08l740.088,-895.358c56.254,-59.554 120.642,-65.662 191.767,-27.492l288.55,294.871c44.233,65.367 51.879,125.25 -20.971,173.059l-815.267,786.82c-53.2,74.063 -117.558,84.134 -193.067,30.213l-208.462,-226.046c-18.075,-47.671 -10.842,-92.883 17.362,-136.067Z" style="fill:#2c2c2c;"></path>
    <path d="M24932.2,8525.71l723.784,-1047.66c97.8,-89.696 194.858,-90.829 291.241,-11.333l308.409,311.962c44.041,73.421 66.704,146.846 17.387,220.271l-711.062,898.912c-59.15,66.284 -139.254,76.209 -239.354,32.363l-376.675,-187.171c-65.246,-69.096 -58.438,-142.171 -13.73,-217.342Z" style="fill:#2c2c2c;"></path>
    <path d="M24777.3,8616.8c-182.627,-114.826 -394.763,-236.911 -346.414,-226.177c58.821,13.175 77.485,13.561 119.422,-1.714c186.963,-42.08 253.822,-66.792 426.277,-125.601l-199.285,353.492Z" style="fill:#2c2c2c;"></path>
    <path d="M24627.7,7408.83c133.813,-225.171 267.892,-469.166 400.6,-614.645c61.067,-50.338 134.93,-56.592 223.359,-12.7l412.262,262.775c75.842,75.162 79.588,155.712 34.009,239.95c-91.246,181.82 -194.117,347.195 -311.909,491.454c-95.446,125.196 -190.896,241.358 -286.346,347.246c-51.045,10.725 -66.316,-16.534 -67.858,-58.371l51.246,-274.934c10.762,-49.225 -14.088,-86.262 -63.304,-114.954l-364.817,-158.929c-24.267,-15.775 -37.687,-45.733 -27.242,-106.892Z" style="fill:#2c2c2c;"></path>
    <path d="M26945.4,9788.39c131.105,-84.874 121.539,-100.093 166.852,-202.881c76.643,30.832 140.363,122.921 155.714,169.45c4.154,12.589 -6.795,50.121 -32.957,80.251c-26.991,31.088 -62.505,48.208 -80.871,49.563c-50.899,3.755 -170.224,-62.121 -208.738,-96.383Z" style="fill:#2c2c2c;"></path>
    <path d="M23164.7,7585.72c-0,0 -475.382,-333.793 -570.689,-400.714c-3.317,-2.33 -5.016,-6.345 -4.38,-10.348c0.636,-4.003 3.497,-7.293 7.373,-8.48c40.046,-19.318 108.691,-74.546 170.769,-146.095c63.022,-72.635 119.277,-162.091 131.933,-248.013c0.584,-5.098 3.747,-9.537 8.375,-11.753c4.628,-2.216 10.07,-1.897 14.407,0.844c108.761,68.594 613.368,387.504 613.368,387.504c4.132,-4.2 -68.392,33.741 -252.294,273.693c-25.744,33.591 -68.488,93.225 -98.693,135.172c-6.614,9.184 -13.336,18.58 -20.169,28.19Z" style="fill:#2d2d2d;"></path>
    <path d="M23862,7042.08c147.338,-193.337 263.521,-392.362 378.796,-591.558c100.362,-100.525 205.629,-91.433 314.575,0l286.087,189.671c115.909,60.325 106.284,132.633 51.588,209.237l-319.371,502.834c-69.804,100.779 -145.683,95.75 -224.633,37.195l-448.442,-208.091c-73.208,-45.842 -87.025,-92.258 -38.6,-139.288Z" style="fill:#2c2c2c;"></path>
    <path d="M24528.8,8840.08c329.342,51.684 618.109,118.35 887.538,192.163l441.046,428.387l77.454,-21.021c175.342,78.755 317.1,176.234 439.046,284.763l-118.817,444.417c-52.729,50.375 -141.321,107.916 -202.154,261.7l-145.017,179.37c-29.537,600.646 -57.429,1166.62 -77.929,1577.45l-2052.07,55.287c-32.637,-507.096 50.717,-1107.48 202.029,-1762.52c-268.945,-321.129 -449.091,-652.925 -592.291,-892.841c-221.059,-370.371 -502.792,-639.084 -700.729,-989.967c169.058,-447.096 448.7,-886.858 801.283,-1321.78c109.55,-97.675 224.908,-93.567 345.367,-0l67.158,-0c442.542,156.037 791.058,319.987 1101.94,487.108c13.867,137.292 1.03,269.367 -70.454,389.984c-230.479,137.437 -462.521,199.387 -662.7,163.929l-370.971,-347.713c20.196,172.604 21.525,309.071 -64.97,350.6c-39.188,115.638 -100.009,143.617 -164.909,155.059c122.113,29.079 216.521,120.591 342.859,151.42c100.65,24.563 198.437,51.13 265.095,117.188c366.78,451.604 689.217,899.804 914.571,1342.77c-109.779,135.35 -239.616,223.083 -387.716,267.462l3.208,38.509l288.046,16.475c66.391,362.204 94.983,802.425 137.737,1255.2l46.834,-5.013c-23.334,-396.192 -38.067,-785.3 -12.505,-1141.23c74.246,-30.079 142.367,-71.667 200.096,-132.75c-56.404,-39.187 -120.958,-86.112 -146.6,-141.883c-96.141,-237.654 -184.858,-477.163 -265.129,-718.775c-222.312,-216.209 -378.837,-448.859 -526.342,-683.763Z" style="fill:#2c2c2c;"></path>
  </g>
</svg>
